[
    {
        "action": "connect",
        "from": {
            "type": "internal",
            "number": "app1",
            "alias": "app1"
        },
        "to": {
        "type": "internal",
        "number": "hadtstringee",
        "alias": "hadtstringee"
        }
    }
]
